01_Data management_02_visualization
…
01_Data management_02_visualization

Hyemin Park(hyemin.park@snu.ac.kr)

14 January 2022

0. check data

00.data set

df <- df[,-1]
df

## # A tibble: 177 x 127
##       ID BIRTH_YEAR LATINO_DUM RACE  RACE_TEXT SEX    SEX_ORIENT LI1_POINTLESS
##    <dbl>      <dbl> <chr>      <chr> <chr>     <chr>  <chr>      <chr>        
##  1  4138       1998 N_latino   Black <NA>      Male   straight   Vdisagree    
##  2  4534       1999 N_latino   Black <NA>      Female straight   Vdisagree    
##  3  4552       1997 N_latino   Asian <NA>      Male   gay        disagree     
##  4  4393       2000 Y_latino   White <NA>      Female straight   disagree     
##  5  4483       2000 N_latino   White <NA>      Female straight   Vdisagree    
##  6  3982       2000 N_latino   White <NA>      Female straight   Vdisagree    
##  7  3865       1999 N_latino   White <NA>      Female straight   Vdisagree    
##  8  4630       2000 N_latino   White <NA>      Female straight   Vdisagree    
##  9  3961       2000 N_latino   Black <NA>      Female straight   disagree     
## 10  4183       1999 N_latino   White <NA>      Female straight   disagree     
## # ... with 167 more rows, and 119 more variables: LI2_PARENTSSAIDSO <chr>,
## #   LI3_FORCEDBYPARENTS <chr>, LI4_FORCEDBYTEACHERS <chr>, LI5_NOSCHOOL <chr>,
## #   LI6_PROMISEDGIFTS <chr>, LI7_AVOIDSCOLDING <chr>, PEI1_LOOKBETTER <chr>,
## #   PEI2_GETBETTERGRADE <chr>, PEI3_LOOKHARDWORKER <chr>,
## #   PEI4_PERFORMBETTER <chr>, PEI5_NOTLOOKINCOMPETENT <chr>,
## #   PEI6_PROVESMART <chr>, PEI7_NOTFEELFAILURE <chr>, PGI1_NOTLEARNWELL_ <chr>,
## #   PGI2_MISTAKE <chr>, PGI3_NOTFINISHHW <chr>, IDI1_VALUELEARNING <chr>, ...
…
